{
  "type": "File",
  "start": 0,
  "end": 185,
  "loc": {
    "start": {
      "line": 1,
      "column": 0
    },
    "end": {
      "line": 12,
      "column": 0
    }
  },
  "program": {
    "type": "Program",
    "start": 0,
    "end": 185,
    "loc": {
      "start": {
        "line": 1,
        "column": 0
      },
      "end": {
        "line": 12,
        "column": 0
      }
    },
    "sourceType": "module",
    "body": [
      {
        "type": "ImportDeclaration",
        "start": 0,
        "end": 39,
        "loc": {
          "start": {
            "line": 1,
            "column": 0
          },
          "end": {
            "line": 1,
            "column": 39
          }
        },
        "specifiers": [
          {
            "type": "ImportDefaultSpecifier",
            "start": 7,
            "end": 12,
            "loc": {
              "start": {
                "line": 1,
                "column": 7
              },
              "end": {
                "line": 1,
                "column": 12
              }
            },
            "local": {
              "type": "Identifier",
              "start": 7,
              "end": 12,
              "loc": {
                "start": {
                  "line": 1,
                  "column": 7
                },
                "end": {
                  "line": 1,
                  "column": 12
                },
                "identifierName": "React"
              },
              "name": "React"
            }
          },
          {
            "type": "ImportSpecifier",
            "start": 15,
            "end": 24,
            "loc": {
              "start": {
                "line": 1,
                "column": 15
              },
              "end": {
                "line": 1,
                "column": 24
              }
            },
            "imported": {
              "type": "Identifier",
              "start": 15,
              "end": 24,
              "loc": {
                "start": {
                  "line": 1,
                  "column": 15
                },
                "end": {
                  "line": 1,
                  "column": 24
                },
                "identifierName": "Component"
              },
              "name": "Component"
            },
            "local": {
              "type": "Identifier",
              "start": 15,
              "end": 24,
              "loc": {
                "start": {
                  "line": 1,
                  "column": 15
                },
                "end": {
                  "line": 1,
                  "column": 24
                },
                "identifierName": "Component"
              },
              "name": "Component"
            }
          }
        ],
        "source": {
          "type": "StringLiteral",
          "start": 31,
          "end": 38,
          "loc": {
            "start": {
              "line": 1,
              "column": 31
            },
            "end": {
              "line": 1,
              "column": 38
            }
          },
          "extra": {
            "rawValue": "react",
            "raw": "'react'"
          },
          "value": "react"
        }
      },
      {
        "type": "Identifier",
        "start": 41,
        "end": 152,
        "loc": {
          "start": {
            "line": 3,
            "column": 0
          },
          "end": {
            "line": 9,
            "column": 1
          }
        },
        "id": {
          "type": "Identifier",
          "start": 47,
          "end": 60,
          "loc": {
            "start": {
              "line": 3,
              "column": 6
            },
            "end": {
              "line": 3,
              "column": 19
            },
            "identifierName": "ContasReceber"
          },
          "name": "ContasReceber"
        },
        "superClass": {
          "type": "Identifier",
          "start": 69,
          "end": 78,
          "loc": {
            "start": {
              "line": 3,
              "column": 28
            },
            "end": {
              "line": 3,
              "column": 37
            },
            "identifierName": "Component"
          },
          "name": "Component"
        },
        "body": {
          "type": "ClassBody",
          "start": 78,
          "end": 152,
          "loc": {
            "start": {
              "line": 3,
              "column": 37
            },
            "end": {
              "line": 9,
              "column": 1
            }
          },
          "body": [
            {
              "type": "ClassMethod",
              "start": 82,
              "end": 150,
              "loc": {
                "start": {
                  "line": 4,
                  "column": 2
                },
                "end": {
                  "line": 8,
                  "column": 3
                }
              },
              "computed": false,
              "key": {
                "type": "Identifier",
                "start": 82,
                "end": 88,
                "loc": {
                  "start": {
                    "line": 4,
                    "column": 2
                  },
                  "end": {
                    "line": 4,
                    "column": 8
                  },
                  "identifierName": "render"
                },
                "name": "render"
              },
              "static": false,
              "kind": "method",
              "id": null,
              "generator": false,
              "expression": false,
              "async": false,
              "params": [],
              "body": {
                "type": "BlockStatement",
                "start": 90,
                "end": 150,
                "loc": {
                  "start": {
                    "line": 4,
                    "column": 10
                  },
                  "end": {
                    "line": 8,
                    "column": 3
                  }
                },
                "body": [
                  {
                    "type": "ReturnStatement",
                    "start": 96,
                    "end": 146,
                    "loc": {
                      "start": {
                        "line": 5,
                        "column": 4
                      },
                      "end": {
                        "line": 7,
                        "column": 6
                      }
                    },
                    "argument": {
                      "type": "JSXElement",
                      "start": 110,
                      "end": 139,
                      "loc": {
                        "start": {
                          "line": 6,
                          "column": 6
                        },
                        "end": {
                          "line": 6,
                          "column": 35
                        }
                      },
                      "openingElement": {
                        "type": "JSXOpeningElement",
                        "start": 110,
                        "end": 115,
                        "loc": {
                          "start": {
                            "line": 6,
                            "column": 6
                          },
                          "end": {
                            "line": 6,
                            "column": 11
                          }
                        },
                        "attributes": [],
                        "name": {
                          "type": "JSXIdentifier",
                          "start": 111,
                          "end": 114,
                          "loc": {
                            "start": {
                              "line": 6,
                              "column": 7
                            },
                            "end": {
                              "line": 6,
                              "column": 10
                            }
                          },
                          "name": "div"
                        },
                        "selfClosing": false
                      },
                      "closingElement": {
                        "type": "JSXClosingElement",
                        "start": 133,
                        "end": 139,
                        "loc": {
                          "start": {
                            "line": 6,
                            "column": 29
                          },
                          "end": {
                            "line": 6,
                            "column": 35
                          }
                        },
                        "name": {
                          "type": "JSXIdentifier",
                          "start": 135,
                          "end": 138,
                          "loc": {
                            "start": {
                              "line": 6,
                              "column": 31
                            },
                            "end": {
                              "line": 6,
                              "column": 34
                            }
                          },
                          "name": "div"
                        }
                      },
                      "children": [
                        {
                          "type": "JSXText",
                          "start": 115,
                          "end": 133,
                          "loc": {
                            "start": {
                              "line": 6,
                              "column": 11
                            },
                            "end": {
                              "line": 6,
                              "column": 29
                            }
                          },
                          "extra": null,
                          "value": "Contas a receber!!"
                        }
                      ],
                      "extra": {
                        "parenthesized": true,
                        "parenStart": 102
                      }
                    }
                  }
                ],
                "directives": []
              }
            }
          ]
        },
        "name": "_",
        "leadingComments": [],
        "trailingComments": []
      },
      {
        "type": "EmptyStatement",
        "start": 152,
        "end": 153,
        "loc": {
          "start": {
            "line": 9,
            "column": 1
          },
          "end": {
            "line": 9,
            "column": 2
          }
        }
      },
      {
        "type": "Identifier",
        "start": 155,
        "end": 184,
        "loc": {
          "start": {
            "line": 11,
            "column": 0
          },
          "end": {
            "line": 11,
            "column": 29
          }
        },
        "declaration": {
          "type": "Identifier",
          "start": 170,
          "end": 183,
          "loc": {
            "start": {
              "line": 11,
              "column": 15
            },
            "end": {
              "line": 11,
              "column": 28
            },
            "identifierName": "ContasReceber"
          },
          "name": "ContasReceber"
        },
        "name": "_",
        "leadingComments": [],
        "trailingComments": []
      },
      {
        "type": "ExportDefaultDeclaration",
        "start": 155,
        "end": 184,
        "loc": {
          "start": {
            "line": 11,
            "column": 0
          },
          "end": {
            "line": 11,
            "column": 29
          }
        },
        "declaration": {
          "type": "ClassDeclaration",
          "start": 41,
          "end": 152,
          "loc": {
            "start": {
              "line": 3,
              "column": 0
            },
            "end": {
              "line": 9,
              "column": 1
            }
          },
          "id": {
            "type": "Identifier",
            "start": 47,
            "end": 60,
            "loc": {
              "start": {
                "line": 3,
                "column": 6
              },
              "end": {
                "line": 3,
                "column": 19
              },
              "identifierName": "ContasReceber"
            },
            "name": "ContasReceber"
          },
          "superClass": {
            "type": "Identifier",
            "start": 69,
            "end": 78,
            "loc": {
              "start": {
                "line": 3,
                "column": 28
              },
              "end": {
                "line": 3,
                "column": 37
              },
              "identifierName": "Component"
            },
            "name": "Component"
          },
          "body": {
            "type": "ClassBody",
            "start": 78,
            "end": 152,
            "loc": {
              "start": {
                "line": 3,
                "column": 37
              },
              "end": {
                "line": 9,
                "column": 1
              }
            },
            "body": [
              {
                "type": "ClassMethod",
                "start": 82,
                "end": 150,
                "loc": {
                  "start": {
                    "line": 4,
                    "column": 2
                  },
                  "end": {
                    "line": 8,
                    "column": 3
                  }
                },
                "computed": false,
                "key": {
                  "type": "Identifier",
                  "start": 82,
                  "end": 88,
                  "loc": {
                    "start": {
                      "line": 4,
                      "column": 2
                    },
                    "end": {
                      "line": 4,
                      "column": 8
                    },
                    "identifierName": "render"
                  },
                  "name": "render"
                },
                "static": false,
                "kind": "method",
                "id": null,
                "generator": false,
                "expression": false,
                "async": false,
                "params": [],
                "body": {
                  "type": "BlockStatement",
                  "start": 90,
                  "end": 150,
                  "loc": {
                    "start": {
                      "line": 4,
                      "column": 10
                    },
                    "end": {
                      "line": 8,
                      "column": 3
                    }
                  },
                  "body": [
                    {
                      "type": "ReturnStatement",
                      "start": 96,
                      "end": 146,
                      "loc": {
                        "start": {
                          "line": 5,
                          "column": 4
                        },
                        "end": {
                          "line": 7,
                          "column": 6
                        }
                      },
                      "argument": {
                        "type": "JSXElement",
                        "start": 110,
                        "end": 139,
                        "loc": {
                          "start": {
                            "line": 6,
                            "column": 6
                          },
                          "end": {
                            "line": 6,
                            "column": 35
                          }
                        },
                        "openingElement": {
                          "type": "JSXOpeningElement",
                          "start": 110,
                          "end": 115,
                          "loc": {
                            "start": {
                              "line": 6,
                              "column": 6
                            },
                            "end": {
                              "line": 6,
                              "column": 11
                            }
                          },
                          "attributes": [],
                          "name": {
                            "type": "JSXIdentifier",
                            "start": 111,
                            "end": 114,
                            "loc": {
                              "start": {
                                "line": 6,
                                "column": 7
                              },
                              "end": {
                                "line": 6,
                                "column": 10
                              }
                            },
                            "name": "div"
                          },
                          "selfClosing": false
                        },
                        "closingElement": {
                          "type": "JSXClosingElement",
                          "start": 133,
                          "end": 139,
                          "loc": {
                            "start": {
                              "line": 6,
                              "column": 29
                            },
                            "end": {
                              "line": 6,
                              "column": 35
                            }
                          },
                          "name": {
                            "type": "JSXIdentifier",
                            "start": 135,
                            "end": 138,
                            "loc": {
                              "start": {
                                "line": 6,
                                "column": 31
                              },
                              "end": {
                                "line": 6,
                                "column": 34
                              }
                            },
                            "name": "div"
                          }
                        },
                        "children": [
                          {
                            "type": "JSXText",
                            "start": 115,
                            "end": 133,
                            "loc": {
                              "start": {
                                "line": 6,
                                "column": 11
                              },
                              "end": {
                                "line": 6,
                                "column": 29
                              }
                            },
                            "extra": null,
                            "value": "Contas a receber!!"
                          }
                        ],
                        "extra": {
                          "parenthesized": true,
                          "parenStart": 102
                        }
                      }
                    }
                  ],
                  "directives": []
                }
              }
            ]
          },
          "__PseudoExport__": false,
          "leadingComments": [],
          "trailingComments": []
        },
        "leadingComments": null
      }
    ],
    "directives": []
  },
  "comments": [],
  "tokens": [
    {
      "type": {
        "label": "import",
        "keyword": "import",
        "beforeExpr": false,
        "startsExpr": false,
        "rightAssociative": false,
        "isLoop": false,
        "isAssign": false,
        "prefix": false,
        "postfix": false,
        "binop": null,
        "updateContext": null
      },
      "value": "import",
      "start": 0,
      "end": 6,
      "loc": {
        "start": {
          "line": 1,
          "column": 0
        },
        "end": {
          "line": 1,
          "column": 6
        }
      }
    },
    {
      "type": {
        "label": "name",
        "beforeExpr": false,
        "startsExpr": true,
        "rightAssociative": false,
        "isLoop": false,
        "isAssign": false,
        "prefix": false,
        "postfix": false,
        "binop": null
      },
      "value": "React",
      "start": 7,
      "end": 12,
      "loc": {
        "start": {
          "line": 1,
          "column": 7
        },
        "end": {
          "line": 1,
          "column": 12
        }
      }
    },
    {
      "type": {
        "label": ",",
        "beforeExpr": true,
        "startsExpr": false,
        "rightAssociative": false,
        "isLoop": false,
        "isAssign": false,
        "prefix": false,
        "postfix": false,
        "binop": null,
        "updateContext": null
      },
      "start": 12,
      "end": 13,
      "loc": {
        "start": {
          "line": 1,
          "column": 12
        },
        "end": {
          "line": 1,
          "column": 13
        }
      }
    },
    {
      "type": {
        "label": "{",
        "beforeExpr": true,
        "startsExpr": true,
        "rightAssociative": false,
        "isLoop": false,
        "isAssign": false,
        "prefix": false,
        "postfix": false,
        "binop": null
      },
      "start": 14,
      "end": 15,
      "loc": {
        "start": {
          "line": 1,
          "column": 14
        },
        "end": {
          "line": 1,
          "column": 15
        }
      }
    },
    {
      "type": {
        "label": "name",
        "beforeExpr": false,
        "startsExpr": true,
        "rightAssociative": false,
        "isLoop": false,
        "isAssign": false,
        "prefix": false,
        "postfix": false,
        "binop": null
      },
      "value": "Component",
      "start": 15,
      "end": 24,
      "loc": {
        "start": {
          "line": 1,
          "column": 15
        },
        "end": {
          "line": 1,
          "column": 24
        }
      }
    },
    {
      "type": {
        "label": "}",
        "beforeExpr": false,
        "startsExpr": false,
        "rightAssociative": false,
        "isLoop": false,
        "isAssign": false,
        "prefix": false,
        "postfix": false,
        "binop": null
      },
      "start": 24,
      "end": 25,
      "loc": {
        "start": {
          "line": 1,
          "column": 24
        },
        "end": {
          "line": 1,
          "column": 25
        }
      }
    },
    {
      "type": {
        "label": "name",
        "beforeExpr": false,
        "startsExpr": true,
        "rightAssociative": false,
        "isLoop": false,
        "isAssign": false,
        "prefix": false,
        "postfix": false,
        "binop": null
      },
      "value": "from",
      "start": 26,
      "end": 30,
      "loc": {
        "start": {
          "line": 1,
          "column": 26
        },
        "end": {
          "line": 1,
          "column": 30
        }
      }
    },
    {
      "type": {
        "label": "string",
        "beforeExpr": false,
        "startsExpr": true,
        "rightAssociative": false,
        "isLoop": false,
        "isAssign": false,
        "prefix": false,
        "postfix": false,
        "binop": null,
        "updateContext": null
      },
      "value": "react",
      "start": 31,
      "end": 38,
      "loc": {
        "start": {
          "line": 1,
          "column": 31
        },
        "end": {
          "line": 1,
          "column": 38
        }
      }
    },
    {
      "type": {
        "label": ";",
        "beforeExpr": true,
        "startsExpr": false,
        "rightAssociative": false,
        "isLoop": false,
        "isAssign": false,
        "prefix": false,
        "postfix": false,
        "binop": null,
        "updateContext": null
      },
      "start": 38,
      "end": 39,
      "loc": {
        "start": {
          "line": 1,
          "column": 38
        },
        "end": {
          "line": 1,
          "column": 39
        }
      }
    },
    {
      "type": {
        "label": "class",
        "keyword": "class",
        "beforeExpr": false,
        "startsExpr": false,
        "rightAssociative": false,
        "isLoop": false,
        "isAssign": false,
        "prefix": false,
        "postfix": false,
        "binop": null,
        "updateContext": null
      },
      "value": "class",
      "start": 41,
      "end": 46,
      "loc": {
        "start": {
          "line": 3,
          "column": 0
        },
        "end": {
          "line": 3,
          "column": 5
        }
      }
    },
    {
      "type": {
        "label": "name",
        "beforeExpr": false,
        "startsExpr": true,
        "rightAssociative": false,
        "isLoop": false,
        "isAssign": false,
        "prefix": false,
        "postfix": false,
        "binop": null
      },
      "value": "ContasReceber",
      "start": 47,
      "end": 60,
      "loc": {
        "start": {
          "line": 3,
          "column": 6
        },
        "end": {
          "line": 3,
          "column": 19
        }
      }
    },
    {
      "type": {
        "label": "extends",
        "keyword": "extends",
        "beforeExpr": true,
        "startsExpr": false,
        "rightAssociative": false,
        "isLoop": false,
        "isAssign": false,
        "prefix": false,
        "postfix": false,
        "binop": null,
        "updateContext": null
      },
      "value": "extends",
      "start": 61,
      "end": 68,
      "loc": {
        "start": {
          "line": 3,
          "column": 20
        },
        "end": {
          "line": 3,
          "column": 27
        }
      }
    },
    {
      "type": {
        "label": "name",
        "beforeExpr": false,
        "startsExpr": true,
        "rightAssociative": false,
        "isLoop": false,
        "isAssign": false,
        "prefix": false,
        "postfix": false,
        "binop": null
      },
      "value": "Component",
      "start": 69,
      "end": 78,
      "loc": {
        "start": {
          "line": 3,
          "column": 28
        },
        "end": {
          "line": 3,
          "column": 37
        }
      }
    },
    {
      "type": {
        "label": "{",
        "beforeExpr": true,
        "startsExpr": true,
        "rightAssociative": false,
        "isLoop": false,
        "isAssign": false,
        "prefix": false,
        "postfix": false,
        "binop": null
      },
      "start": 78,
      "end": 79,
      "loc": {
        "start": {
          "line": 3,
          "column": 37
        },
        "end": {
          "line": 3,
          "column": 38
        }
      }
    },
    {
      "type": {
        "label": "name",
        "beforeExpr": false,
        "startsExpr": true,
        "rightAssociative": false,
        "isLoop": false,
        "isAssign": false,
        "prefix": false,
        "postfix": false,
        "binop": null
      },
      "value": "render",
      "start": 82,
      "end": 88,
      "loc": {
        "start": {
          "line": 4,
          "column": 2
        },
        "end": {
          "line": 4,
          "column": 8
        }
      }
    },
    {
      "type": {
        "label": "(",
        "beforeExpr": true,
        "startsExpr": true,
        "rightAssociative": false,
        "isLoop": false,
        "isAssign": false,
        "prefix": false,
        "postfix": false,
        "binop": null
      },
      "start": 88,
      "end": 89,
      "loc": {
        "start": {
          "line": 4,
          "column": 8
        },
        "end": {
          "line": 4,
          "column": 9
        }
      }
    },
    {
      "type": {
        "label": ")",
        "beforeExpr": false,
        "startsExpr": false,
        "rightAssociative": false,
        "isLoop": false,
        "isAssign": false,
        "prefix": false,
        "postfix": false,
        "binop": null
      },
      "start": 89,
      "end": 90,
      "loc": {
        "start": {
          "line": 4,
          "column": 9
        },
        "end": {
          "line": 4,
          "column": 10
        }
      }
    },
    {
      "type": {
        "label": "{",
        "beforeExpr": true,
        "startsExpr": true,
        "rightAssociative": false,
        "isLoop": false,
        "isAssign": false,
        "prefix": false,
        "postfix": false,
        "binop": null
      },
      "start": 90,
      "end": 91,
      "loc": {
        "start": {
          "line": 4,
          "column": 10
        },
        "end": {
          "line": 4,
          "column": 11
        }
      }
    },
    {
      "type": {
        "label": "return",
        "keyword": "return",
        "beforeExpr": true,
        "startsExpr": false,
        "rightAssociative": false,
        "isLoop": false,
        "isAssign": false,
        "prefix": false,
        "postfix": false,
        "binop": null,
        "updateContext": null
      },
      "value": "return",
      "start": 96,
      "end": 102,
      "loc": {
        "start": {
          "line": 5,
          "column": 4
        },
        "end": {
          "line": 5,
          "column": 10
        }
      }
    },
    {
      "type": {
        "label": "(",
        "beforeExpr": true,
        "startsExpr": true,
        "rightAssociative": false,
        "isLoop": false,
        "isAssign": false,
        "prefix": false,
        "postfix": false,
        "binop": null
      },
      "start": 102,
      "end": 103,
      "loc": {
        "start": {
          "line": 5,
          "column": 10
        },
        "end": {
          "line": 5,
          "column": 11
        }
      }
    },
    {
      "type": {
        "label": "jsxTagStart",
        "beforeExpr": false,
        "startsExpr": true,
        "rightAssociative": false,
        "isLoop": false,
        "isAssign": false,
        "prefix": false,
        "postfix": false,
        "binop": null
      },
      "start": 110,
      "end": 111,
      "loc": {
        "start": {
          "line": 6,
          "column": 6
        },
        "end": {
          "line": 6,
          "column": 7
        }
      }
    },
    {
      "type": {
        "label": "jsxName",
        "beforeExpr": false,
        "startsExpr": false,
        "rightAssociative": false,
        "isLoop": false,
        "isAssign": false,
        "prefix": false,
        "postfix": false,
        "binop": null,
        "updateContext": null
      },
      "value": "div",
      "start": 111,
      "end": 114,
      "loc": {
        "start": {
          "line": 6,
          "column": 7
        },
        "end": {
          "line": 6,
          "column": 10
        }
      }
    },
    {
      "type": {
        "label": "jsxTagEnd",
        "beforeExpr": false,
        "startsExpr": false,
        "rightAssociative": false,
        "isLoop": false,
        "isAssign": false,
        "prefix": false,
        "postfix": false,
        "binop": null
      },
      "start": 114,
      "end": 115,
      "loc": {
        "start": {
          "line": 6,
          "column": 10
        },
        "end": {
          "line": 6,
          "column": 11
        }
      }
    },
    {
      "type": {
        "label": "jsxText",
        "beforeExpr": true,
        "startsExpr": false,
        "rightAssociative": false,
        "isLoop": false,
        "isAssign": false,
        "prefix": false,
        "postfix": false,
        "binop": null,
        "updateContext": null
      },
      "value": "Contas a receber!!",
      "start": 115,
      "end": 133,
      "loc": {
        "start": {
          "line": 6,
          "column": 11
        },
        "end": {
          "line": 6,
          "column": 29
        }
      }
    },
    {
      "type": {
        "label": "jsxTagStart",
        "beforeExpr": false,
        "startsExpr": true,
        "rightAssociative": false,
        "isLoop": false,
        "isAssign": false,
        "prefix": false,
        "postfix": false,
        "binop": null
      },
      "start": 133,
      "end": 134,
      "loc": {
        "start": {
          "line": 6,
          "column": 29
        },
        "end": {
          "line": 6,
          "column": 30
        }
      }
    },
    {
      "type": {
        "label": "/",
        "beforeExpr": true,
        "startsExpr": false,
        "rightAssociative": false,
        "isLoop": false,
        "isAssign": false,
        "prefix": false,
        "postfix": false,
        "binop": 10,
        "updateContext": null
      },
      "value": "/",
      "start": 134,
      "end": 135,
      "loc": {
        "start": {
          "line": 6,
          "column": 30
        },
        "end": {
          "line": 6,
          "column": 31
        }
      }
    },
    {
      "type": {
        "label": "jsxName",
        "beforeExpr": false,
        "startsExpr": false,
        "rightAssociative": false,
        "isLoop": false,
        "isAssign": false,
        "prefix": false,
        "postfix": false,
        "binop": null,
        "updateContext": null
      },
      "value": "div",
      "start": 135,
      "end": 138,
      "loc": {
        "start": {
          "line": 6,
          "column": 31
        },
        "end": {
          "line": 6,
          "column": 34
        }
      }
    },
    {
      "type": {
        "label": "jsxTagEnd",
        "beforeExpr": false,
        "startsExpr": false,
        "rightAssociative": false,
        "isLoop": false,
        "isAssign": false,
        "prefix": false,
        "postfix": false,
        "binop": null
      },
      "start": 138,
      "end": 139,
      "loc": {
        "start": {
          "line": 6,
          "column": 34
        },
        "end": {
          "line": 6,
          "column": 35
        }
      }
    },
    {
      "type": {
        "label": ")",
        "beforeExpr": false,
        "startsExpr": false,
        "rightAssociative": false,
        "isLoop": false,
        "isAssign": false,
        "prefix": false,
        "postfix": false,
        "binop": null
      },
      "start": 144,
      "end": 145,
      "loc": {
        "start": {
          "line": 7,
          "column": 4
        },
        "end": {
          "line": 7,
          "column": 5
        }
      }
    },
    {
      "type": {
        "label": ";",
        "beforeExpr": true,
        "startsExpr": false,
        "rightAssociative": false,
        "isLoop": false,
        "isAssign": false,
        "prefix": false,
        "postfix": false,
        "binop": null,
        "updateContext": null
      },
      "start": 145,
      "end": 146,
      "loc": {
        "start": {
          "line": 7,
          "column": 5
        },
        "end": {
          "line": 7,
          "column": 6
        }
      }
    },
    {
      "type": {
        "label": "}",
        "beforeExpr": false,
        "startsExpr": false,
        "rightAssociative": false,
        "isLoop": false,
        "isAssign": false,
        "prefix": false,
        "postfix": false,
        "binop": null
      },
      "start": 149,
      "end": 150,
      "loc": {
        "start": {
          "line": 8,
          "column": 2
        },
        "end": {
          "line": 8,
          "column": 3
        }
      }
    },
    {
      "type": {
        "label": "}",
        "beforeExpr": false,
        "startsExpr": false,
        "rightAssociative": false,
        "isLoop": false,
        "isAssign": false,
        "prefix": false,
        "postfix": false,
        "binop": null
      },
      "start": 151,
      "end": 152,
      "loc": {
        "start": {
          "line": 9,
          "column": 0
        },
        "end": {
          "line": 9,
          "column": 1
        }
      }
    },
    {
      "type": {
        "label": ";",
        "beforeExpr": true,
        "startsExpr": false,
        "rightAssociative": false,
        "isLoop": false,
        "isAssign": false,
        "prefix": false,
        "postfix": false,
        "binop": null,
        "updateContext": null
      },
      "start": 152,
      "end": 153,
      "loc": {
        "start": {
          "line": 9,
          "column": 1
        },
        "end": {
          "line": 9,
          "column": 2
        }
      }
    },
    {
      "type": {
        "label": "export",
        "keyword": "export",
        "beforeExpr": false,
        "startsExpr": false,
        "rightAssociative": false,
        "isLoop": false,
        "isAssign": false,
        "prefix": false,
        "postfix": false,
        "binop": null,
        "updateContext": null
      },
      "value": "export",
      "start": 155,
      "end": 161,
      "loc": {
        "start": {
          "line": 11,
          "column": 0
        },
        "end": {
          "line": 11,
          "column": 6
        }
      }
    },
    {
      "type": {
        "label": "default",
        "keyword": "default",
        "beforeExpr": true,
        "startsExpr": false,
        "rightAssociative": false,
        "isLoop": false,
        "isAssign": false,
        "prefix": false,
        "postfix": false,
        "binop": null,
        "updateContext": null
      },
      "value": "default",
      "start": 162,
      "end": 169,
      "loc": {
        "start": {
          "line": 11,
          "column": 7
        },
        "end": {
          "line": 11,
          "column": 14
        }
      }
    },
    {
      "type": {
        "label": "name",
        "beforeExpr": false,
        "startsExpr": true,
        "rightAssociative": false,
        "isLoop": false,
        "isAssign": false,
        "prefix": false,
        "postfix": false,
        "binop": null
      },
      "value": "ContasReceber",
      "start": 170,
      "end": 183,
      "loc": {
        "start": {
          "line": 11,
          "column": 15
        },
        "end": {
          "line": 11,
          "column": 28
        }
      }
    },
    {
      "type": {
        "label": ";",
        "beforeExpr": true,
        "startsExpr": false,
        "rightAssociative": false,
        "isLoop": false,
        "isAssign": false,
        "prefix": false,
        "postfix": false,
        "binop": null,
        "updateContext": null
      },
      "start": 183,
      "end": 184,
      "loc": {
        "start": {
          "line": 11,
          "column": 28
        },
        "end": {
          "line": 11,
          "column": 29
        }
      }
    },
    {
      "type": {
        "label": "eof",
        "beforeExpr": false,
        "startsExpr": false,
        "rightAssociative": false,
        "isLoop": false,
        "isAssign": false,
        "prefix": false,
        "postfix": false,
        "binop": null,
        "updateContext": null
      },
      "start": 185,
      "end": 185,
      "loc": {
        "start": {
          "line": 12,
          "column": 0
        },
        "end": {
          "line": 12,
          "column": 0
        }
      }
    }
  ]
}